{
   "ctm": {
     "ctm_version": 1,
     "type": "bwm_strata",
     "layer": "SOLID",
     "textures": [
        "ic2:blocks/resource/tin_ore_1",
        "ic2:blocks/resource/tin_ore_2"
     ]
   }
}