{
   "ctm": {
     "ctm_version": 1,
     "type": "bwm_strata",
     "layer": "SOLID",
     "textures": [
        "thermalfoundation:blocks/ore/ore_lead_1",
        "thermalfoundation:blocks/ore/ore_lead_2"
     ]
   }
}